[
    {
        "modelName": "General",
        "fields": [
            {
                "fieldName": "id",
                "fieldType": "num"
            },
            {
                "fieldName": "paypal_email",
                "fieldType": "String"
            },
            {
                "fieldName": "check_payable_to",
                "fieldType": "String"
            },
            {
                "fieldName": "bank_transfer",
                "fieldType": "String"
            },
            {
                "fieldName": "payment_notes",
                "fieldType": "String"
            }
        ]
    }
]