<svg xmlns="http://www.w3.org/2000/svg" xmlns:xlink="http://www.w3.org/1999/xlink" width="20" height="20" viewBox="0 0 20 20">
  <defs>
    <clipPath id="clip-path">
      <rect id="Rectangle_39635" data-name="Rectangle 39635" width="20" height="20" transform="translate(125 597)" fill="#acacac"/>
    </clipPath>
  </defs>
  <g id="Preview" transform="translate(-125 -597)" clip-path="url(#clip-path)">
    <g id="Group_55677" data-name="Group 55677" transform="translate(123.398 596.578)">
      <path id="Path_52334" data-name="Path 52334" d="M10.58,8.3A2.316,2.316,0,1,0,12.9,10.614,2.309,2.309,0,0,0,10.58,8.3Z" transform="translate(0.996 1.955)" fill="#acacac"/>
      <path id="Path_52335" data-name="Path 52335" d="M12.818.759v4.59h4.59Z" transform="translate(2.127 0.084)" fill="#acacac"/>
      <path id="Path_52336" data-name="Path 52336" d="M14.271,6.738a.656.656,0,0,1-.653-.653V.422H4.9a.656.656,0,0,0-.653.653V19.769a.656.656,0,0,0,.653.653H19.3a.656.656,0,0,0,.653-.653V6.738Zm2.147,10.526a.948.948,0,0,1-1.347.147.492.492,0,0,1-.147-.147L13.577,15.6A3.63,3.63,0,1,1,15.2,12.569a3.671,3.671,0,0,1-.61,2l1.663,1.347a.931.931,0,0,1,.168,1.347Z" fill="#acacac"/>
    </g>
  </g>
</svg>
