<svg xmlns="http://www.w3.org/2000/svg" xmlns:xlink="http://www.w3.org/1999/xlink" width="15" height="15" viewBox="0 0 15 15">
  <defs>
    <clipPath id="clip-path">
      <rect id="Rectangle_21904" data-name="Rectangle 21904" width="15" height="15" transform="translate(21 15)" fill="#acacac" stroke="#707070" stroke-width="1"/>
    </clipPath>
  </defs>
  <g id="search_icon" transform="translate(-21 -15)" clip-path="url(#clip-path)">
    <path id="Path_23301" data-name="Path 23301" d="M19.171,8.657a5.458,5.458,0,1,0-7.719,7.719,5.439,5.439,0,0,0,7.251.39l2.483,2.483a.579.579,0,1,0,.819-.819l-2.444-2.483a5.488,5.488,0,0,0-.39-7.29Zm-.858,6.861a4.273,4.273,0,1,1,0-6.043A4.259,4.259,0,0,1,18.314,15.518Z" transform="translate(12.167 8.922)" fill="#acacac"/>
  </g>
</svg>
