<svg xmlns="http://www.w3.org/2000/svg" xmlns:xlink="http://www.w3.org/1999/xlink" width="21" height="21" viewBox="0 0 21 21">
  <defs>
    <clipPath id="clip-path">
      <rect id="Rectangle_40088" data-name="Rectangle 40088" width="21" height="21" transform="translate(314 664)" fill="#fff"/>
    </clipPath>
  </defs>
  <g id="Mask_Group_299" data-name="Mask Group 299" transform="translate(-314 -664)" clip-path="url(#clip-path)">
    <g id="noun-send-4521045" transform="translate(311.418 663.999)">
      <path id="Path_55309" data-name="Path 55309" d="M3.087,10.427l5.006,1.992a.39.39,0,0,0,.389-.059L20.916,2.4A.062.062,0,0,1,21,2.407a.065.065,0,0,1,0,.088L11.558,13.327a.389.389,0,0,0-.088.349.381.381,0,0,0,.225.281l6.684,2.978A1.142,1.142,0,0,0,19.4,16.9a1.2,1.2,0,0,0,.614-.826L23.539.49a.4.4,0,0,0-.134-.4A.381.381,0,0,0,23,.036L3.077,8.967a.779.779,0,0,0-.46.735.769.769,0,0,0,.47.725Zm10.221,5.718-3,4.608a.389.389,0,0,1-.7-.085L6.907,13.088a.239.239,0,0,1,.059-.255.23.23,0,0,1,.255-.046l.679.287c.209.088.245.1.327.32l1.411,3.834a.162.162,0,0,0,.153.1.167.167,0,0,0,.147-.114l.9-2.5a.239.239,0,0,1,.131-.15.224.224,0,0,1,.2.007l1.992,1a.4.4,0,0,1,.15.575Z" fill="#fff" fill-rule="evenodd"/>
      <g id="Group_55968" data-name="Group 55968" transform="translate(2.616 20.981)">
        <path id="Path_55310" data-name="Path 55310" d="M.011,0H0a.006.006,0,0,1,0,0,.006.006,0,0,1,0,0l0,0h0v0H0a0,0,0,0,0,0,0A.006.006,0,0,0,0,0H.011Z" fill="#fff"/>
      </g>
      <g id="Group_55969" data-name="Group 55969" transform="translate(2.628 20.981)">
        <path id="Path_55311" data-name="Path 55311" d="M.008-.006H0V0H0V-.009H.008Z" fill="#fff"/>
      </g>
      <g id="Group_55970" data-name="Group 55970" transform="translate(2.636 20.981)">
        <path id="Path_55312" data-name="Path 55312" d="M.01,0H0V0H.01V0H0A0,0,0,0,1,0,0a0,0,0,0,1,0,0l0,0,0,0a0,0,0,0,1,0,0Zm0,0h0Z" fill="#fff"/>
      </g>
      <g id="Group_55971" data-name="Group 55971" transform="translate(2.648 20.981)">
        <path id="Path_55313" data-name="Path 55313" d="M.005,0h0Zm0,0V0H0S0,0,0,0V0H0v0H.009a0,0,0,0,1,0,0Z" fill="#fff"/>
      </g>
      <g id="Group_55972" data-name="Group 55972" transform="translate(2.659 20.981)">
        <path id="Path_55314" data-name="Path 55314" d="M0-.012v0h0v0H0V0h0V0H0A0,0,0,0,1,0,0v0H0v0H0v0Z" fill="#fff"/>
      </g>
      <g id="Group_55973" data-name="Group 55973" transform="translate(2.666 20.981)">
        <path id="Path_55315" data-name="Path 55315" d="M.01,0H0V0H.01V0H0A0,0,0,0,1,0,0a0,0,0,0,1,0,0l0,0,0,0a0,0,0,0,1,0,0Zm0,0h0Z" fill="#fff"/>
      </g>
      <g id="Group_55974" data-name="Group 55974" transform="translate(2.678 20.981)">
        <path id="Path_55316" data-name="Path 55316" d="M.008-.008v0h0V0H0A0,0,0,0,1,0,0a0,0,0,0,1,0,0l0,0h0ZM.006,0h0V0a0,0,0,0,0,0,0H0A0,0,0,0,0,0,0S0,0,0,0Z" fill="#fff"/>
      </g>
      <g id="Group_55975" data-name="Group 55975" transform="translate(2.695 20.981)">
        <path id="Path_55317" data-name="Path 55317" d="M.006,0h0V0a0,0,0,0,0,0,0H0A0,0,0,0,0,0,0V0ZM0-.008h0l0,0a.005.005,0,0,1,0,0,0,0,0,0,1,0,0H0V-.012H0Z" fill="#fff"/>
      </g>
      <g id="Group_55976" data-name="Group 55976" transform="translate(2.707 20.981)">
        <path id="Path_55318" data-name="Path 55318" d="M0-.009H0L.005,0l0-.006h0L.006,0V0H0V0H0Z" fill="#fff"/>
      </g>
      <g id="Group_55977" data-name="Group 55977" transform="translate(2.723 20.981)">
        <path id="Path_55319" data-name="Path 55319" d="M0,0V0H0V-.009H.007l0,0a.005.005,0,0,1,0,0,0,0,0,0,1,0,0H0Zm0-.006H0A0,0,0,0,0,0,0V0h0V0a0,0,0,0,0,0,0Z" fill="#fff"/>
      </g>
      <g id="Group_55978" data-name="Group 55978" transform="translate(2.735 20.981)">
        <path id="Path_55320" data-name="Path 55320" d="M.006-.007H0A0,0,0,0,0,0,0S0,0,0,0h0V0a0,0,0,0,0,0,0Zm0,0,0,0a.005.005,0,0,1,0,0,0,0,0,0,1,0,0H0A0,0,0,0,1,0,0a0,0,0,0,1,0,0Z" fill="#fff"/>
      </g>
      <g id="Group_55979" data-name="Group 55979" transform="translate(2.746 20.981)">
        <path id="Path_55321" data-name="Path 55321" d="M0,0V0H0V-.009H.007l0,0a.005.005,0,0,1,0,0,0,0,0,0,1,0,0H0Zm0-.006H0A0,0,0,0,0,0,0V0h0V0a0,0,0,0,0,0,0Z" fill="#fff"/>
      </g>
      <g id="Group_55980" data-name="Group 55980" transform="translate(2.758 20.981)">
        <path id="Path_55322" data-name="Path 55322" d="M.009-.009v0H0A0,0,0,0,0,0,0V0h0V0H0A0,0,0,0,1,0,0a0,0,0,0,1,0,0l0,0h0Z" fill="#fff"/>
      </g>
      <g id="Group_55981" data-name="Group 55981" transform="translate(2.767 20.981)">
        <path id="Path_55323" data-name="Path 55323" d="M.006-.007H0A0,0,0,0,0,0,0S0,0,0,0h0V0a0,0,0,0,0,0,0Zm0,0,0,0a.005.005,0,0,1,0,0,0,0,0,0,1,0,0H0A0,0,0,0,1,0,0a0,0,0,0,1,0,0Z" fill="#fff"/>
      </g>
      <g id="Group_55982" data-name="Group 55982" transform="translate(2.778 20.981)">
        <path id="Path_55324" data-name="Path 55324" d="M.008-.006H0V0H0V-.009H.008Z" fill="#fff"/>
      </g>
      <g id="Group_55983" data-name="Group 55983" transform="translate(2.786 20.981)">
        <path id="Path_55325" data-name="Path 55325" d="M.011-.005V0h0V0H0A0,0,0,0,0,0,0V0H0V-.009H.009a0,0,0,0,1,0,0Z" fill="#fff"/>
      </g>
      <g id="Group_55984" data-name="Group 55984" transform="translate(2.798 20.981)">
        <path id="Path_55326" data-name="Path 55326" d="M.005,0h0Zm0,0V0H0S0,0,0,0V0H0v0H.009a0,0,0,0,1,0,0Z" fill="#fff"/>
      </g>
      <g id="Group_55985" data-name="Group 55985" transform="translate(2.809 20.981)">
        <path id="Path_55327" data-name="Path 55327" d="M.008-.006H0V0H0V-.009H.008Z" fill="#fff"/>
      </g>
      <g id="Group_55986" data-name="Group 55986" transform="translate(2.817 20.981)">
        <path id="Path_55328" data-name="Path 55328" d="M0-.012v0h0v0H0V0h0V0H0A0,0,0,0,1,0,0v0H0v0H0v0Z" fill="#fff"/>
      </g>
      <g id="Group_55987" data-name="Group 55987" transform="translate(2.825 20.981)">
        <path id="Path_55329" data-name="Path 55329" d="M.008-.009v0h0a0,0,0,0,1,0,0V0H0V0H0s0,0,0,0v0H.008Z" fill="#fff"/>
      </g>
      <g id="Group_55988" data-name="Group 55988" transform="translate(2.616 20.997)">
        <path id="Path_55330" data-name="Path 55330" d="M.007-.012v0h0v0H0V0H0V-.007H0v0H0a0,0,0,0,1,0,0h0Z" fill="#fff"/>
      </g>
      <g id="Group_55989" data-name="Group 55989" transform="translate(2.624 20.997)">
        <path id="Path_55331" data-name="Path 55331" d="M.008-.006H0V0H0V-.009H.008Z" fill="#fff"/>
      </g>
      <g id="Group_55990" data-name="Group 55990" transform="translate(2.632 20.997)">
        <path id="Path_55332" data-name="Path 55332" d="M.006-.007H0A0,0,0,0,0,0,0S0,0,0,0h0V0a0,0,0,0,0,0,0Zm0,0,0,0a.005.005,0,0,1,0,0,0,0,0,0,1,0,0H0A0,0,0,0,1,0,0a0,0,0,0,1,0,0Z" fill="#fff"/>
      </g>
      <g id="Group_55991" data-name="Group 55991" transform="translate(2.643 20.997)">
        <path id="Path_55333" data-name="Path 55333" d="M.01-.008h0a0,0,0,0,1,0,0V0h0V0h0a0,0,0,0,0,0,0V0h0V-.006H0A0,0,0,0,0,0,0V0H0V-.009H.01Z" fill="#fff"/>
      </g>
      <g id="Group_55992" data-name="Group 55992" transform="translate(2.666 20.997)">
        <path id="Path_55334" data-name="Path 55334" d="M0-.012v0h0v0H0V0h0V0H0A0,0,0,0,1,0,0v0H0v0H0v0Z" fill="#fff"/>
      </g>
      <g id="Group_55993" data-name="Group 55993" transform="translate(2.673 20.997)">
        <path id="Path_55335" data-name="Path 55335" d="M.011-.005V0h0V0H0A0,0,0,0,0,0,0V0H0V-.012H0v0H.009A0,0,0,0,1,.011-.005Z" fill="#fff"/>
      </g>
      <g id="Group_55994" data-name="Group 55994" transform="translate(2.685 20.997)">
        <path id="Path_55336" data-name="Path 55336" d="M.01,0H0V0H.01V0H0A0,0,0,0,1,0,0a0,0,0,0,1,0,0l0,0,0,0a0,0,0,0,1,0,0Zm0,0h0Z" fill="#fff"/>
      </g>
      <g id="Group_55995" data-name="Group 55995" transform="translate(2.702 20.997)">
        <path id="Path_55337" data-name="Path 55337" d="M0-.012H0L.009,0V-.012h0V0h0L0-.008V0H0Z" fill="#fff"/>
      </g>
      <g id="Group_55996" data-name="Group 55996" transform="translate(2.715 20.997)">
        <path id="Path_55338" data-name="Path 55338" d="M.006-.007H0A0,0,0,0,0,0,0S0,0,0,0h0V0a0,0,0,0,0,0,0Zm0,0,0,0a.005.005,0,0,1,0,0,0,0,0,0,1,0,0H0A0,0,0,0,1,0,0a0,0,0,0,1,0,0Z" fill="#fff"/>
      </g>
      <g id="Group_55997" data-name="Group 55997" transform="translate(2.727 20.997)">
        <path id="Path_55339" data-name="Path 55339" d="M0,0V-.009H0V0h0V-.009h0V0H0A.006.006,0,0,1,0,0Z" fill="#fff"/>
      </g>
      <g id="Group_55998" data-name="Group 55998" transform="translate(2.738 20.997)">
        <path id="Path_55340" data-name="Path 55340" d="M.011-.005V0h0V0H0A0,0,0,0,0,0,0V0H0V-.009H.009a0,0,0,0,1,0,0Z" fill="#fff"/>
      </g>
      <g id="Group_55999" data-name="Group 55999" transform="translate(2.755 20.997)">
        <path id="Path_55341" data-name="Path 55341" d="M0-.012H.01a0,0,0,0,1,0,0,0,0,0,0,1,0,0H0V0H0Zm0,0v0h0v0h0Z" fill="#fff"/>
      </g>
      <g id="Group_56000" data-name="Group 56000" transform="translate(2.767 20.997)">
        <path id="Path_55342" data-name="Path 55342" d="M.008-.006H0V0H0V-.009H.008Z" fill="#fff"/>
      </g>
      <g id="Group_56001" data-name="Group 56001" transform="translate(2.776 20.997)">
        <path id="Path_55343" data-name="Path 55343" d="M.006-.007H0A0,0,0,0,0,0,0S0,0,0,0h0V0a0,0,0,0,0,0,0Zm0,0,0,0a.005.005,0,0,1,0,0,0,0,0,0,1,0,0H0A0,0,0,0,1,0,0a0,0,0,0,1,0,0Z" fill="#fff"/>
      </g>
      <g id="Group_56002" data-name="Group 56002" transform="translate(2.787 20.997)">
        <path id="Path_55344" data-name="Path 55344" d="M0-.009H0V0A0,0,0,0,1,0,0H0V0H0Zm0,0H0v0H0Z" fill="#fff"/>
      </g>
      <g id="Group_56003" data-name="Group 56003" transform="translate(2.792 20.997)">
        <path id="Path_55345" data-name="Path 55345" d="M.01,0H0V0H.01V0H0A0,0,0,0,1,0,0a0,0,0,0,1,0,0l0,0,0,0a0,0,0,0,1,0,0Zm0,0h0Z" fill="#fff"/>
      </g>
      <g id="Group_56004" data-name="Group 56004" transform="translate(2.804 20.997)">
        <path id="Path_55346" data-name="Path 55346" d="M.009-.009v0H0A0,0,0,0,0,0,0V0h0V0H0A0,0,0,0,1,0,0a0,0,0,0,1,0,0l0,0h0Z" fill="#fff"/>
      </g>
      <g id="Group_56005" data-name="Group 56005" transform="translate(2.813 20.997)">
        <path id="Path_55347" data-name="Path 55347" d="M0-.012v0h0v0H0V0h0V0H0A0,0,0,0,1,0,0v0H0v0H0v0Z" fill="#fff"/>
      </g>
    </g>
  </g>
</svg>
