<svg xmlns="http://www.w3.org/2000/svg" xmlns:xlink="http://www.w3.org/1999/xlink" width="239" height="150" viewBox="0 0 239 150">
  <defs>
    <clipPath id="clip-path">
      <rect id="Rectangle_21503" data-name="Rectangle 21503" width="239" height="150" transform="translate(20 20)" fill="#fff" stroke="#707070" stroke-width="1"/>
    </clipPath>
  </defs>
  <g id="login_illustration" data-name="login illustration" transform="translate(-20 -20)" clip-path="url(#clip-path)">
    <g id="Typing-pana" transform="translate(58.477 20)">
      <g id="freepik--background-complete--inject-2" transform="translate(6.111)">
        <path id="Path_22528" data-name="Path 22528" d="M32.531,149.931a4.222,4.222,0,0,0-2.3,4.343,13.864,13.864,0,0,1,5.25-1.127" transform="translate(-30.194 -74.737)" fill="#e0e0e0"/>
        <path id="Path_22529" data-name="Path 22529" d="M31.719,150.5c-.829.787.974-1.285,1.715-1.517a4.513,4.513,0,0,1,2.3.1c3.481.754,7.044,1.55,10.015,3.526,3.079,2.072,5.229,5.2,7.3,8.287a4.4,4.4,0,0,1,.862,1.848A1.512,1.512,0,0,1,53,164.4,2.242,2.242,0,0,1,52,164.37l-4.873-.878c-2.217-.414-4.533-.829-6.319-2.217-2.047-1.583-3.054-4.144-3.97-6.551-.7-1.852-2.486-2.822-3.518-4.529C33.322,150.187,32.61,149.665,31.719,150.5Z" transform="translate(-30.525 -74.47)" fill="#ebebeb"/>
        <path id="Path_22530" data-name="Path 22530" d="M63.271,169.226a2.343,2.343,0,0,1-.331-.153l-.928-.472c-.8-.414-1.96-1.023-3.369-1.819a53.916,53.916,0,0,1-4.8-3.037c-.866-.626-1.757-1.322-2.631-2.072s-1.732-1.616-2.689-2.378a11.763,11.763,0,0,0-1.492-1.023,9.973,9.973,0,0,0-1.6-.7c-.547-.195-1.094-.373-1.608-.609a6.037,6.037,0,0,1-1.4-.891,11.6,11.6,0,0,1-1.981-2.32c-.539-.783-1.011-1.533-1.5-2.167a7.376,7.376,0,0,0-2.876-2.412,5.233,5.233,0,0,0-1.351-.336,3.022,3.022,0,0,1,.365,0,4.1,4.1,0,0,1,1.019.249,7.28,7.28,0,0,1,2.963,2.4c.506.638.986,1.384,1.529,2.163A11.448,11.448,0,0,0,42.54,155.9a5.722,5.722,0,0,0,1.359.858,16.486,16.486,0,0,0,1.6.6,9.812,9.812,0,0,1,1.657.717,11.6,11.6,0,0,1,1.521,1.04c.974.771,1.827,1.624,2.7,2.391a32.181,32.181,0,0,0,2.606,2.072c1.728,1.243,3.369,2.25,4.765,3.066s2.54,1.438,3.315,1.877l.907.51A2.622,2.622,0,0,1,63.271,169.226Z" transform="translate(-31.331 -74.458)" fill="#e0e0e0"/>
        <path id="Path_22531" data-name="Path 22531" d="M109.141,98.678h1.417l4.11-.025-.05.05c0-7.434-.033-22.309-.058-39.418V53.376l.1.108-35.548-.062.041-.046c0,1.123,0,2-.021,2.6v0c0-.6,0-1.475-.021-2.6v-.041h.041l35.548-.062h.108v6.012c-.025,17.109-.046,31.985-.054,39.418v.054h-.054l-4.11-.025h-1.061Z" transform="translate(-42.54 -50.343)" fill="#e0e0e0"/>
        <path id="Path_22532" data-name="Path 22532" d="M117.644,94.789h1.417l4.11-.025-.05.054c0-7.438-.033-22.309-.058-39.422V49.462l.108.108L87.624,49.5l.041-.041v2.594c0-.6,0-1.471-.021-2.594v-.041h.041l35.548-.066h.108v6.012c-.025,17.113-.046,31.985-.058,39.422v.05h-.05l-4.11-.025h-1.061Z" transform="translate(-44.687 -49.354)" fill="#e0e0e0"/>
        <path id="Path_22533" data-name="Path 22533" d="M219.81,65.244H192.594a6.012,6.012,0,0,0-6.012,6.012V83.074a6.012,6.012,0,0,0,6.012,6.012h.762v4.682l4.682-4.682h21.783a6.016,6.016,0,0,0,6.016-6.012V71.257a6.017,6.017,0,0,0-6.029-6.012Z" transform="translate(-69.661 -53.364)" fill="#e0e0e0"/>
        <circle id="Ellipse_1716" data-name="Ellipse 1716" cx="1.334" cy="1.334" r="1.334" transform="translate(129.045 23.266)" fill="#fff"/>
        <path id="Path_22534" data-name="Path 22534" d="M204.06,83.277a1.546,1.546,0,1,1,1.541-1.541,1.546,1.546,0,0,1-1.541,1.541Zm0-2.673a1.127,1.127,0,1,0,.8.332,1.131,1.131,0,0,0-.8-.332Z" transform="translate(-73.681 -57.135)" fill="#fafafa"/>
        <circle id="Ellipse_1717" data-name="Ellipse 1717" cx="1.334" cy="1.334" r="1.334" transform="translate(135.207 23.204)" fill="#fff"/>
        <path id="Path_22535" data-name="Path 22535" d="M212.306,83.2a1.541,1.541,0,1,1,1.546-1.541A1.541,1.541,0,0,1,212.306,83.2Zm0-2.668a1.12,1.12,0,1,0,.8.326,1.127,1.127,0,0,0-.8-.326Z" transform="translate(-75.765 -57.119)" fill="#fafafa"/>
        <circle id="Ellipse_1718" data-name="Ellipse 1718" cx="1.334" cy="1.334" r="1.334" transform="translate(141.368 23.204)" fill="#fff"/>
        <path id="Path_22536" data-name="Path 22536" d="M220.547,83.2a1.541,1.541,0,1,1,1.546-1.541A1.541,1.541,0,0,1,220.547,83.2Zm0-2.668a1.12,1.12,0,1,0,.8.326,1.127,1.127,0,0,0-.8-.326Z" transform="translate(-77.845 -57.119)" fill="#fafafa"/>
      </g>
      <g id="freepik--Plants--inject-2" transform="translate(20.001 53.056)">
        <path id="Path_22537" data-name="Path 22537" d="M48.772,120.356c1.372,1.724,3.692,2.747,3.439,4.115-.228,1.218-1.314,4.9-1.214,6.137.128,1.608,1.6,2.727,2.963,3.588s2.872,1.885,3.149,3.472c.24,1.372-.547,2.776-.278,4.144.336,1.732,2.159,2.693,3.787,3.369q4.173,1.736,8.474,3.128a8.594,8.594,0,0,0-2.623-8.138c-1.052-.928-2.358-1.624-3.1-2.814-.891-1.421-.787-3.215-.9-4.885s-.667-3.564-2.2-4.239c-.854-.377-1.923-.327-2.59-.974-.829-.8-.58-2.155-.829-3.278a4.753,4.753,0,0,0-3.29-3.224,14.1,14.1,0,0,0-4.778-.414" transform="translate(-48.772 -120.32)" fill="#fd7848"/>
        <path id="Path_22538" data-name="Path 22538" d="M81.346,155.088c-1.906-3.091-1.11-6.812.481-10.077s4.255-5.871,6.936-8.32,6-5.055,9.679-4.715c-2.113,1.065-2.979,3.6-3.427,5.93s-.733,4.84-2.3,6.63c-.783.9-1.9,1.628-2.142,2.793-.22,1.057.36,2.171.083,3.211-.452,1.691-2.8,2.167-3.526,3.758-.352.771-.278,1.715-.771,2.4a2.327,2.327,0,0,1-2.9.456,7.072,7.072,0,0,1-2.246-2.254" transform="translate(-56.712 -123.253)" fill="#fd7848"/>
        <path id="Path_22539" data-name="Path 22539" d="M74.371,160.919a12.911,12.911,0,0,1-.961-1.72c-.555-1.144-1.243-2.851-2.022-4.972-.414-1.065-.829-2.229-1.305-3.468a36.362,36.362,0,0,0-1.724-3.874,9.22,9.22,0,0,0-1.272-1.873,10.394,10.394,0,0,0-1.86-1.471c-.68-.443-1.4-.862-2.072-1.363a7.413,7.413,0,0,1-1.827-1.823,4.852,4.852,0,0,1-.783-2.465c-.062-.849,0-1.682-.079-2.486a4.765,4.765,0,0,0-.675-2.225,2.519,2.519,0,0,0-.816-.767,4.971,4.971,0,0,0-1.019-.452,5.224,5.224,0,0,1-1.985-.97,2.66,2.66,0,0,1-.7-1.96c0-.675.075-1.314.054-1.923a5.055,5.055,0,0,0-.365-1.7,7.2,7.2,0,0,0-1.724-2.465,13.437,13.437,0,0,0-1.8-1.425c-.522-.352-.941-.613-1.222-.791l-.319-.2a.629.629,0,0,1-.108-.079l.116.058.331.186c.29.166.717.414,1.243.758a13.106,13.106,0,0,1,1.836,1.409,7.251,7.251,0,0,1,1.782,2.486,5.113,5.113,0,0,1,.389,1.753c.025.63-.054,1.272-.041,1.931a2.486,2.486,0,0,0,.655,1.823,5.005,5.005,0,0,0,1.918.916,5.446,5.446,0,0,1,1.061.468,2.751,2.751,0,0,1,.866.829,4.91,4.91,0,0,1,.709,2.316c.07.829.021,1.657.087,2.486a4.633,4.633,0,0,0,.746,2.362,7.21,7.21,0,0,0,1.778,1.769c.671.493,1.388.912,2.072,1.363a10.479,10.479,0,0,1,1.894,1.5,9.605,9.605,0,0,1,1.3,1.927,36.431,36.431,0,0,1,1.711,3.9c.481,1.243.9,2.412,1.285,3.477.771,2.13,1.421,3.841,1.952,4.993.273.568.481,1.015.651,1.3.075.137.133.249.182.336a.535.535,0,0,1,.062.128Z" transform="translate(-49.028 -120.35)" fill="#263238"/>
        <path id="Path_22540" data-name="Path 22540" d="M99.229,131.907a1.793,1.793,0,0,1-.327.178c-.215.108-.535.273-.928.51a13.96,13.96,0,0,0-3.021,2.436,13.613,13.613,0,0,0-1.624,2.126,14.549,14.549,0,0,0-.713,1.314c-.22.464-.414.953-.68,1.442a7.076,7.076,0,0,1-.916,1.43,4.558,4.558,0,0,1-1.409,1.077,13.782,13.782,0,0,0-1.566.878,2.627,2.627,0,0,0-1.019,1.434c-.348,1.181-.162,2.461-.564,3.626a19.718,19.718,0,0,1-1.657,3,7.632,7.632,0,0,0-.887,2.9,11.142,11.142,0,0,0,.054,2.673,23.2,23.2,0,0,0,.924,3.783c.137.414.244.762.323,1.011a1.973,1.973,0,0,1,.1.356.365.365,0,0,1-.041-.083q-.037-.108-.1-.261c-.087-.224-.211-.564-.36-1a21.189,21.189,0,0,1-.994-3.787,11.151,11.151,0,0,1-.083-2.71,7.728,7.728,0,0,1,.891-2.983,24.091,24.091,0,0,0,1.657-2.975c.414-1.106.195-2.37.555-3.622a2.863,2.863,0,0,1,1.1-1.546,14.277,14.277,0,0,1,1.6-.891,4.393,4.393,0,0,0,1.351-1.028,6.929,6.929,0,0,0,.9-1.384c.244-.481.46-.965.688-1.434a14.41,14.41,0,0,1,.729-1.326,13.63,13.63,0,0,1,1.657-2.138,13.181,13.181,0,0,1,3.087-2.4,9.972,9.972,0,0,1,.953-.477A2.784,2.784,0,0,1,99.229,131.907Z" transform="translate(-57.585 -123.244)" fill="#263238"/>
      </g>
      <g id="freepik--Character--inject-2" transform="translate(0 26.035)">
        <path id="Path_22541" data-name="Path 22541" d="M166.26,151.264a57.276,57.276,0,0,1,11.7-.207c3.866.464,7.695,1.852,9.791,4.272,1.761,2.035,2.1,4.558,2.4,6.941l2.561,20.573a9.341,9.341,0,0,1-.356,5.213c-1.707,3.626-7.993,5.337-13,4.206a15.439,15.439,0,0,1-10.421-8.063c-1.786-3.6-2.014-7.508-2.221-11.337l-1.139-20.847.506-.331" transform="translate(-58.249 -100.999)" fill="#263238"/>
        <path id="Path_22542" data-name="Path 22542" d="M22.02,198.958l1.206,4.239,115.143,33.439,39.6-26.138v-3.563Z" transform="translate(-22.02 -113.145)" fill="#263238"/>
        <path id="Path_22543" data-name="Path 22543" d="M63.323,173.3l114.65,27.161-39.6,25.844L22.02,192.482Z" transform="translate(-22.02 -106.669)" fill="#455a64"/>
        <path id="Path_22544" data-name="Path 22544" d="M137.2,200.727l-21.928,10.6-40.2-10.964L94.807,189.58Z" transform="translate(-35.408 -110.778)" fill="#263238"/>
        <path id="Path_22545" data-name="Path 22545" d="M124.821,202.579l5.822,1.923,5.391-2.93-8.971-2.88-5.238,2.718Z" transform="translate(-47.208 -113.078)" fill="#455a64"/>
        <path id="Path_22546" data-name="Path 22546" d="M68.226,164.407c.182.729,5.117,29.6,5.117,29.6l40.193,10.964-5.291-30.886Z" transform="translate(-33.681 -104.425)" fill="#263238"/>
        <path id="Path_22547" data-name="Path 22547" d="M124.928,195.86c.058,0,.762,3.8,1.57,8.507s1.417,8.536,1.355,8.544-.758-3.8-1.566-8.507S124.87,195.868,124.928,195.86Z" transform="translate(-47.99 -112.363)" fill="#455a64"/>
        <path id="Path_22548" data-name="Path 22548" d="M98.585,189.96a2.135,2.135,0,1,1-2.855-1.525A2.3,2.3,0,0,1,98.585,189.96Z" transform="translate(-40.301 -110.458)" fill="#f5f5f5"/>
        <path id="Path_22549" data-name="Path 22549" d="M121.754,171.9c1.79-2.072,2.83-16.16,2.83-16.16l13.26,1.492h0s-1.91,20.639-7.968,23.117l-6.062,2.486" transform="translate(-47.189 -102.238)" fill="#ffbe9d"/>
        <path id="Path_22550" data-name="Path 22550" d="M178.367,183.262s5.867,6.576,5.515,12.054l-10.413-2.486,4.015-9.584" transform="translate(-60.241 -109.18)" fill="#fd7848"/>
        <path id="Path_22551" data-name="Path 22551" d="M174.535,150.652a34.132,34.132,0,0,0-4.993-17.88,17.946,17.946,0,0,0-13.26-5.826l-12.36.2a28.716,28.716,0,0,0-9.141,2.681l-.307.087v.062c-3.5,1.827-7.251,4.67-7.844,9.464l-1.5,9.336,8.594.414h0c-.874,3.124-1.84,3.526-.829,6.609l3.273,5.432c0,4.33-.29,1.707-1.62,11.1l33.2,7.873c1.927-1.9.46-7.044-4.678-16.4-.767-1.4,3.215-15.489,3.215-15.489l7.417,2.573" transform="translate(-48.043 -94.972)" fill="#fd7848"/>
        <path id="Path_22552" data-name="Path 22552" d="M138.171,151.92a3.86,3.86,0,0,1-.3.588c-.207.373-.506.9-.858,1.57a13.324,13.324,0,0,0-1.72,5.557,6.986,6.986,0,0,0,.568,3.128,10.155,10.155,0,0,0,1.4,2.221c.477.584.891,1.032,1.173,1.351a3.658,3.658,0,0,1,.414.5,4.238,4.238,0,0,1-.477-.46c-.3-.3-.733-.733-1.243-1.314a9.611,9.611,0,0,1-1.467-2.233,6.99,6.99,0,0,1-.6-3.22,10.252,10.252,0,0,1,.667-3.2,17.554,17.554,0,0,1,1.135-2.416c.369-.663.692-1.185.916-1.541A4.119,4.119,0,0,1,138.171,151.92Z" transform="translate(-50.546 -101.274)" fill="#263238"/>
        <path id="Path_22553" data-name="Path 22553" d="M173.741,144.754l-.1.083c-.066.05-.162.133-.294.228a5.163,5.163,0,0,1-1.289.626,8.819,8.819,0,0,1-5.208-.17c-1.069-.315-2.2-.779-3.414-1.243a14.537,14.537,0,0,0-3.994-1.032,12.846,12.846,0,0,0-4.517.456,46.723,46.723,0,0,0-4.662,1.6,36.464,36.464,0,0,1-4.707,1.541,12.431,12.431,0,0,1-4.6.265,16.855,16.855,0,0,1-3.982-1.243c-1.2-.514-2.308-1.011-3.36-1.355a11.324,11.324,0,0,0-2.9-.568,7.2,7.2,0,0,0-2.221.224,5.9,5.9,0,0,0-1.724.829s.029-.029.1-.083.166-.128.3-.22a5.358,5.358,0,0,1,1.3-.593,7.044,7.044,0,0,1,2.254-.265,11.121,11.121,0,0,1,2.95.543c1.065.336,2.18.829,3.381,1.334A17.022,17.022,0,0,0,141,146.954a12.253,12.253,0,0,0,4.529-.278,36.046,36.046,0,0,0,4.678-1.537,45.321,45.321,0,0,1,4.682-1.6,13.012,13.012,0,0,1,4.591-.452,14.61,14.61,0,0,1,4.036,1.061c1.218.472,2.337.941,3.394,1.264a8.989,8.989,0,0,0,5.142.236A5.885,5.885,0,0,0,173.741,144.754Z" transform="translate(-48.455 -99.035)" fill="#263238"/>
        <path id="Path_22554" data-name="Path 22554" d="M166.8,171.993a1.245,1.245,0,0,1-.265.1l-.779.249a20.856,20.856,0,0,1-2.934.7,10.774,10.774,0,0,1-2.072.124,9.946,9.946,0,0,1-2.366-.414c-1.628-.472-3.278-1.338-5.08-2.026a18.993,18.993,0,0,0-2.7-.775,20.424,20.424,0,0,0-2.6-.327,18.8,18.8,0,0,0-4.421.3,18.061,18.061,0,0,0-2.9.8c-.336.108-.588.228-.762.29a1.245,1.245,0,0,1-.273.091,2.677,2.677,0,0,1,.257-.133c.17-.075.414-.2.75-.327a16.184,16.184,0,0,1,2.9-.87,18.23,18.23,0,0,1,4.459-.352,20.12,20.12,0,0,1,2.631.319,18.758,18.758,0,0,1,2.735.783c1.823.692,3.46,1.558,5.063,2.035a10.032,10.032,0,0,0,2.316.414,10.961,10.961,0,0,0,2.072-.1,23.988,23.988,0,0,0,2.93-.63l.791-.211A1.206,1.206,0,0,1,166.8,171.993Z" transform="translate(-51.704 -105.688)" fill="#263238"/>
        <path id="Path_22555" data-name="Path 22555" d="M151.278,188.229a2.11,2.11,0,0,1-.551-.058,12.5,12.5,0,0,1-1.475-.348c-1.243-.34-2.859-1.044-4.715-1.591a9.6,9.6,0,0,0-4.869-.265,7.16,7.16,0,0,0-1.869.8.535.535,0,0,1,.1-.1,2.608,2.608,0,0,1,.336-.24,4.972,4.972,0,0,1,1.392-.613,9.326,9.326,0,0,1,4.972.207c1.889.551,3.485,1.276,4.7,1.657.6.195,1.1.331,1.446.414A3.045,3.045,0,0,1,151.278,188.229Z" transform="translate(-51.239 -109.766)" fill="#263238"/>
        <g id="Group_14349" data-name="Group 14349" transform="translate(112.738 53.137)" opacity="0.1">
          <path id="Path_22556" data-name="Path 22556" d="M175.437,155.251s-5.412,11.929-.692,19.728l2.213-.829-1.852-3.232a3.609,3.609,0,0,1-.062-1.5c.273-1.7.8-4.471,1.5-7.264Z" transform="translate(-172.813 -155.251)"/>
        </g>
        <path id="Path_22557" data-name="Path 22557" d="M164.241,94.81c2.669,2.329,3.858,5.992,3.945,9.53s-.224,7.554-.141,11.246l5.412-.108a107.473,107.473,0,0,0,11.051-.535,3.315,3.315,0,0,0,1.637-.414,3.38,3.38,0,0,0,1.073-2.544,11.2,11.2,0,0,0-.1-4.459,3.82,3.82,0,0,0-3.1-2.863,5.046,5.046,0,0,1-1.566-.124,1.976,1.976,0,0,1-1.057-1.446c-.137-.6-.116-1.243-.207-1.848A5.167,5.167,0,0,0,177.8,97.2c-1.11-.377-2.449-.414-3.178-1.343-.887-1.115-.307-2.726-.257-4.144a5.171,5.171,0,0,0-8.374-4.226" transform="translate(-57.912 -84.733)" fill="#263238"/>
        <path id="Path_22558" data-name="Path 22558" d="M154.47,123.881h0a6.336,6.336,0,0,1-6.315-6.066c-.116-2.726-.211-5.312-.211-5.312s-5.217-.485-5.59-5.627-.215-17.014-.215-17.014h0A17.917,17.917,0,0,1,160.25,91.01l.8.543-.236,26.047A6.34,6.34,0,0,1,154.47,123.881Z" transform="translate(-52.325 -85.127)" fill="#ffbe9d"/>
        <path id="Path_22559" data-name="Path 22559" d="M144.776,103.126a.746.746,0,1,0-.53.221A.75.75,0,0,0,144.776,103.126Z" transform="translate(-52.676 -88.637)" fill="#263238"/>
        <path id="Path_22560" data-name="Path 22560" d="M142.733,101.178c.087.087.568-.336,1.276-.381s1.243.286,1.318.191-.054-.2-.29-.356a1.761,1.761,0,0,0-2.072.153C142.758,100.975,142.691,101.157,142.733,101.178Z" transform="translate(-52.481 -88.263)" fill="#263238"/>
        <path id="Path_22561" data-name="Path 22561" d="M153.6,101.994a.75.75,0,1,0,1.044.182.75.75,0,0,0-1.044-.182Z" transform="translate(-55.145 -88.64)" fill="#263238"/>
        <path id="Path_22562" data-name="Path 22562" d="M153.075,101.388c.087.087.568-.336,1.276-.381s1.243.286,1.318.191-.054-.2-.286-.356a1.763,1.763,0,0,0-2.072.153C153.1,101.185,153.033,101.351,153.075,101.388Z" transform="translate(-55.091 -88.316)" fill="#263238"/>
        <path id="Path_22563" data-name="Path 22563" d="M149.085,106.94a3.472,3.472,0,0,0-1.16-.17c-.186,0-.336-.041-.352-.141a.974.974,0,0,1,.1-.539c.153-.481.307-.965.472-1.475a19.7,19.7,0,0,0,.978-3.862,20.435,20.435,0,0,0-1.367,3.729c-.149.514-.294,1-.439,1.483a1.189,1.189,0,0,0-.054.779.493.493,0,0,0,.336.278,1.289,1.289,0,0,0,.319.021A2.755,2.755,0,0,0,149.085,106.94Z" transform="translate(-53.616 -88.361)" fill="#263238"/>
        <path id="Path_22564" data-name="Path 22564" d="M151.71,109.858c.713-.485-1.968,1.206-3.414,1.243a1.956,1.956,0,0,0,2.358.634C152.162,111.06,151.71,109.858,151.71,109.858Z" transform="translate(-53.888 -90.637)" fill="#fff"/>
        <path id="Path_22565" data-name="Path 22565" d="M149.875,119.912a11.963,11.963,0,0,0,6.588-2.32s-1.355,3.8-6.518,3.655Z" transform="translate(-54.286 -92.611)" fill="#eb996e"/>
        <path id="Path_22566" data-name="Path 22566" d="M164.739,101.352c-1.86,1.5-4.115-2.383-5.113-4.815a23.9,23.9,0,0,1-1.45-7.782,3.837,3.837,0,0,1,.448-2.507c.506-.684.717.116,1.355-.514,1.1-1.086.054-1.09,1.152-.957,1.877.228,5.967,3.481,6.311,5.449a19.286,19.286,0,0,1-.211,5.971c-.128.9-.257,1.811-.381,2.714a4.438,4.438,0,0,1-.539,1.831,1.31,1.31,0,0,1-1.57.609" transform="translate(-56.376 -84.314)" fill="#263238"/>
        <path id="Path_22567" data-name="Path 22567" d="M167.043,101.011a.779.779,0,0,1,.742-.779c.961-.025,2.532.356,2.681,3.008.211,3.783-3.431,2.838-3.443,2.731S167.035,102.487,167.043,101.011Z" transform="translate(-58.613 -88.229)" fill="#ffbe9d"/>
        <path id="Path_22568" data-name="Path 22568" d="M168.136,104.9a1.545,1.545,0,0,0,.182.087.638.638,0,0,0,.493,0,1.635,1.635,0,0,0,.675-1.5,2.171,2.171,0,0,0-.236-.936.771.771,0,0,0-.526-.477.327.327,0,0,0-.377.2c-.046.108,0,.182-.037.191s-.087-.062-.062-.22a.414.414,0,0,1,.133-.244.5.5,0,0,1,.36-.116.924.924,0,0,1,.721.547,2.225,2.225,0,0,1,.29,1.044,1.743,1.743,0,0,1-.874,1.686.688.688,0,0,1-.6-.066C168.149,104.992,168.124,104.909,168.136,104.9Z" transform="translate(-58.894 -88.646)" fill="#eb996e"/>
        <path id="Path_22569" data-name="Path 22569" d="M154.072,86.137a12.128,12.128,0,0,1-7.206,7.7.949.949,0,0,1-.9,0c-.315-.249-.195-.771.07-1.073s.634-.514.829-.866l-1.927,1.09a3.082,3.082,0,0,1-.994.414,1.057,1.057,0,0,1-.99-.311.642.642,0,0,1,.133-.941,1.521,1.521,0,0,1-2.192.244,2.267,2.267,0,0,1-.6-2.3,4.653,4.653,0,0,1,1.351-2.072c2.664-2.594,6.539-3.535,10.247-3.787a11.867,11.867,0,0,1,3.427.149,7.036,7.036,0,0,1,4.869,2.366" transform="translate(-51.845 -84.178)" fill="#263238"/>
        <path id="Path_22570" data-name="Path 22570" d="M145.524,98.718c-.041.12-.717-.033-1.55,0s-1.508.186-1.554.075.617-.489,1.541-.506S145.569,98.615,145.524,98.718Z" transform="translate(-52.404 -87.739)" fill="#263238"/>
        <path id="Path_22571" data-name="Path 22571" d="M155.685,98.811c-.041.116-.7-.029-1.5-.066s-1.467.033-1.5-.087.642-.389,1.521-.344S155.726,98.7,155.685,98.811Z" transform="translate(-54.995 -87.744)" fill="#263238"/>
        <path id="Path_22572" data-name="Path 22572" d="M169.19,93.891c-.062-.037.141-.414.286-1.061a4.558,4.558,0,0,0-.137-2.523,4.612,4.612,0,0,0-1.5-2.035c-.526-.414-.924-.568-.9-.634s.46,0,1.073.385a4.173,4.173,0,0,1,1.757,4.889C169.534,93.589,169.227,93.92,169.19,93.891Z" transform="translate(-58.593 -85.046)" fill="#455a64"/>
        <path id="Path_22573" data-name="Path 22573" d="M169.3,155.251l2.95,18.369L148.5,182.491l3.845,7.931,25-7.811a8.482,8.482,0,0,0,5.8-9.6l-3.195-17.755Z" transform="translate(-53.938 -102.115)" fill="#ffbe9d"/>
        <path id="Path_22574" data-name="Path 22574" d="M143.134,190.95s-4.421-1.409-6.543-1.952c-.829-.211-4.363,1.657-6.808,3.207,0,0-3.365,2-3.091,2.61.3.68,1.541.539,3.518-.39,0,0-.692,2,.667,1.96,0,0-.675,2.167.6,2.391s1.57-2.54,2.689-2.689,3.439-.3,3.439-.3,1.927,3.195,3.423,3.418a38.853,38.853,0,0,0,5.95-.282Z" transform="translate(-48.432 -110.627)" fill="#ffbe9d"/>
        <path id="Path_22575" data-name="Path 22575" d="M135.546,192.789a19.541,19.541,0,0,1-3.472,2.188,10.168,10.168,0,0,1,1.657-1.185A10.039,10.039,0,0,1,135.546,192.789Z" transform="translate(-49.794 -111.588)" fill="#eb996e"/>
        <path id="Path_22576" data-name="Path 22576" d="M135.822,194.436a12.535,12.535,0,0,1-2.039,1.061,12.36,12.36,0,0,1-2.126.862,12.017,12.017,0,0,1,2.035-1.061A12.326,12.326,0,0,1,135.822,194.436Z" transform="translate(-49.689 -112.004)" fill="#eb996e"/>
        <path id="Path_22577" data-name="Path 22577" d="M135.337,198.41a4.973,4.973,0,0,1-1.417.3,5.043,5.043,0,0,1-1.459.112,4.868,4.868,0,0,1,1.417-.307,4.947,4.947,0,0,1,1.459-.108Z" transform="translate(-49.892 -113.003)" fill="#eb996e"/>
      </g>
      <g id="freepik--Document--inject-2" transform="translate(36.857 5.992)">
        <rect id="Rectangle_21504" data-name="Rectangle 21504" width="35.548" height="45.327" transform="translate(0.062 0.191)" fill="#fafafa"/>
        <path id="Path_22578" data-name="Path 22578" d="M106.929,102.886v-3.34c0-2.155,0-5.3-.025-9.282,0-7.964-.029-19.28-.046-32.735l.1.1H71.41l.108-.108c0,16.8,0,32.4-.021,45.327l-.087-.091,25.79.05,7.2.021h.037l-7.181.021-25.848.046h-.091V57.369H107.07v.2c0,13.471-.037,24.812-.046,32.788,0,3.978-.021,7.115-.029,9.261v3.07A.241.241,0,0,1,106.929,102.886Z" transform="translate(-71.319 -57.369)" fill="#263238"/>
        <path id="Path_22579" data-name="Path 22579" d="M108.3,67.6a51.984,51.984,0,0,1-6.7.215,52.078,52.078,0,0,1-6.7-.215,52.027,52.027,0,0,1,6.7-.215A51.934,51.934,0,0,1,108.3,67.6Z" transform="translate(-77.27 -59.897)" fill="#263238"/>
        <path id="Path_22580" data-name="Path 22580" d="M108.3,71.107a51.5,51.5,0,0,1-6.7.22,51.593,51.593,0,0,1-6.7-.22,52.025,52.025,0,0,1,6.7-.215A52.842,52.842,0,0,1,108.3,71.107Z" transform="translate(-77.27 -60.781)" fill="#263238"/>
        <path id="Path_22581" data-name="Path 22581" d="M108.3,75.136a51.983,51.983,0,0,1-6.7.215,52.073,52.073,0,0,1-6.7-.215,52.027,52.027,0,0,1,6.7-.215A51.933,51.933,0,0,1,108.3,75.136Z" transform="translate(-77.27 -61.798)" fill="#263238"/>
        <path id="Path_22582" data-name="Path 22582" d="M87.857,83.583a40.6,40.6,0,0,1-5.917.215,40.681,40.681,0,0,1-5.921-.215,40.679,40.679,0,0,1,5.921-.215A40.6,40.6,0,0,1,87.857,83.583Z" transform="translate(-72.505 -63.93)" fill="#263238"/>
        <path id="Path_22583" data-name="Path 22583" d="M87.857,87.091a41.31,41.31,0,0,1-5.917.215,41.394,41.394,0,0,1-5.921-.215,41.4,41.4,0,0,1,5.921-.215A42.049,42.049,0,0,1,87.857,87.091Z" transform="translate(-72.505 -64.815)" fill="#263238"/>
        <path id="Path_22584" data-name="Path 22584" d="M87.857,91.115a40.6,40.6,0,0,1-5.917.215,40.678,40.678,0,0,1-5.921-.215A40.679,40.679,0,0,1,81.94,90.9,40.6,40.6,0,0,1,87.857,91.115Z" transform="translate(-72.505 -65.831)" fill="#263238"/>
        <path id="Path_22585" data-name="Path 22585" d="M87.857,95.327a40.6,40.6,0,0,1-5.917.215,40.68,40.68,0,0,1-5.921-.215,40.679,40.679,0,0,1,5.921-.215A40.6,40.6,0,0,1,87.857,95.327Z" transform="translate(-72.505 -66.894)" fill="#263238"/>
        <path id="Path_22586" data-name="Path 22586" d="M87.857,98.835a41.31,41.31,0,0,1-5.917.215,41.394,41.394,0,0,1-5.921-.215,41.394,41.394,0,0,1,5.921-.215A40.6,40.6,0,0,1,87.857,98.835Z" transform="translate(-72.505 -67.779)" fill="#263238"/>
        <path id="Path_22587" data-name="Path 22587" d="M87.857,102.859a40.6,40.6,0,0,1-5.917.215,40.677,40.677,0,0,1-5.921-.215,40.681,40.681,0,0,1,5.921-.215A40.6,40.6,0,0,1,87.857,102.859Z" transform="translate(-72.505 -68.795)" fill="#263238"/>
        <path id="Path_22588" data-name="Path 22588" d="M87.857,107.071a40.6,40.6,0,0,1-5.917.215,40.682,40.682,0,0,1-5.921-.215,40.678,40.678,0,0,1,5.921-.215A38.6,38.6,0,0,1,87.857,107.071Z" transform="translate(-72.505 -69.858)" fill="#263238"/>
        <path id="Path_22589" data-name="Path 22589" d="M87.857,110.58a41.31,41.31,0,0,1-5.917.215,41.394,41.394,0,0,1-5.921-.215,41.4,41.4,0,0,1,5.921-.215A40.6,40.6,0,0,1,87.857,110.58Z" transform="translate(-72.505 -70.743)" fill="#263238"/>
        <path id="Path_22590" data-name="Path 22590" d="M109.376,110.58a49.207,49.207,0,0,1-6.447.215,49.207,49.207,0,0,1-6.447-.215,49.21,49.21,0,0,1,6.447-.215A48.359,48.359,0,0,1,109.376,110.58Z" transform="translate(-77.669 -70.743)" fill="#263238"/>
        <path id="Path_22591" data-name="Path 22591" d="M109.032,98.835a49.207,49.207,0,0,1-6.447.215,49.207,49.207,0,0,1-6.447-.215,49.207,49.207,0,0,1,6.447-.215A48.356,48.356,0,0,1,109.032,98.835Z" transform="translate(-77.582 -67.779)" fill="#263238"/>
        <path id="Path_22592" data-name="Path 22592" d="M109.032,102.338a48.356,48.356,0,0,1-6.447.215,48.355,48.355,0,0,1-6.447-.215,48.354,48.354,0,0,1,6.447-.215A48.356,48.356,0,0,1,109.032,102.338Z" transform="translate(-77.582 -68.663)" fill="#263238"/>
        <path id="Path_22593" data-name="Path 22593" d="M109.032,106.367a49.2,49.2,0,0,1-6.447.215,49.2,49.2,0,0,1-6.447-.215,49.207,49.207,0,0,1,6.447-.215A48.356,48.356,0,0,1,109.032,106.367Z" transform="translate(-77.582 -69.68)" fill="#263238"/>
        <rect id="Rectangle_21505" data-name="Rectangle 21505" width="11.362" height="8.544" transform="translate(19.222 17.925)" fill="#fd7848"/>
        <g id="Group_14350" data-name="Group 14350" transform="translate(19.222 21.402)" opacity="0.3">
          <path id="Path_22594" data-name="Path 22594" d="M97.029,88.464l2.921-1.943,3.116,1.943,3.348-2.47,1.981,1.235v3.833H97.029Z" transform="translate(-97.029 -85.995)"/>
        </g>
        <g id="Group_14351" data-name="Group 14351" transform="translate(24.327 19.359)" opacity="0.3">
          <path id="Path_22595" data-name="Path 22595" d="M105.9,84.282a1.023,1.023,0,1,1-1.023-1.019A1.023,1.023,0,0,1,105.9,84.282Z" transform="translate(-103.857 -83.262)"/>
        </g>
        <path id="Path_22596" data-name="Path 22596" d="M85.392,67.217l.079,1.74h-.207A2.275,2.275,0,0,0,85.1,68.3a1.111,1.111,0,0,0-.452-.464,1.542,1.542,0,0,0-.742-.153H82.864v5.664a1.5,1.5,0,0,0,.149.854.829.829,0,0,0,.638.228h.257v.2H80.763v-.2h.265a.767.767,0,0,0,.667-.282,1.687,1.687,0,0,0,.12-.8V67.681h-.9a2.362,2.362,0,0,0-.738.079,1.015,1.015,0,0,0-.489.414,1.657,1.657,0,0,0-.24.8h-.191l.087-1.74Z" transform="translate(-73.321 -59.854)" fill="#263238"/>
      </g>
    </g>
  </g>
</svg>
