<svg xmlns="http://www.w3.org/2000/svg" xmlns:xlink="http://www.w3.org/1999/xlink" width="18" height="18" >
  <g transform="translate(-2 0)">
      <path id="Path_23305" data-name="Path 23305" d="M12.319,5.909a2.729,2.729,0,0,0,.693.636,2.033,2.033,0,0,0,1.112.347c1.425,0,2.534-1.615,2.534-3a2.537,2.537,0,1,0-5.075,0A3.379,3.379,0,0,0,12.3,5.882a.2.2,0,0,1,.023.027Z" transform1="translate(28.583 598.652)" fill="#acacac"/>
      <path id="Path_23306" data-name="Path 23306" d="M12.191,8.994a4.073,4.073,0,0,1-.654.5,3.4,3.4,0,0,1-1.863.568A3.7,3.7,0,0,1,7.147,9a7.324,7.324,0,0,0-4.8,6.86.38.38,0,0,0,.381.381H16.62A.377.377,0,0,0,17,15.859a.247.247,0,0,0-.008-.076,7.322,7.322,0,0,0-4.8-6.788Z" transform1="translate(26.599 600.296)" fill="#acacac"/>
      <path id="Path_23307" data-name="Path 23307" d="M16.471,5.681a3,3,0,0,1-2.2,1.042,2.784,2.784,0,0,1-1.525-.468,3.389,3.389,0,0,1-.681-.573L12.02,5.7c0,.076.012.152.012.229a5.4,5.4,0,0,1-1.11,3.147c-.007.011-.015.018-.022.028a8.062,8.062,0,0,1,2.64,1.763h5.643a.382.382,0,0,0,.381-.381,5.3,5.3,0,0,0-3.093-4.81Z" transform1="translate(28.436 599.584)" fill="#acacac"/>
      <path id="Path_23308" data-name="Path 23308" d="M8.986,10.577a2.679,2.679,0,0,0,1.467-.457,3.68,3.68,0,0,0,.96-.872.153.153,0,0,0,.031-.038A4.618,4.618,0,0,0,12.419,6.5a3.433,3.433,0,0,0-6.865,0c0,1.886,1.5,4.08,3.433,4.08Z" transform1="translate(27.287 599.021)" fill="#acacac"/>
  </g>
</svg>
