<svg xmlns="http://www.w3.org/2000/svg" xmlns:xlink="http://www.w3.org/1999/xlink" width="21" height="21" >
  <g transform="translate(-2.7 -1.5)">
    <!-- <path id="Path_23304" data-name="Path 23304" d="M18.88,1.8H7.345a.9.9,0,0,0-.9.9V20.9a.9.9,0,0,0,.9.9H18.88a.9.9,0,0,0,.9-.9V2.7a.9.9,0,0,0-.9-.9ZM10.091,19.853H8.119V17.881h1.972Zm0-2.547H8.119V15.334h1.972Zm0-2.572H8.119V12.762h1.972Zm0-2.547H8.119v-1h1.972Zm2.672,7.666H10.791V17.881h1.972Zm0-2.547H10.791V15.334h1.972Zm0-2.572H10.791V12.762h1.972Zm0-2.547H10.791v-1h1.972Zm2.672,7.666H13.462V17.881h1.972Zm0-2.547H13.462V15.334h1.972Zm0-2.572H13.462V12.762h1.972Zm0-2.547H13.462v-1h1.972Zm2.672,7.666H16.134V15.309h1.972Zm0-7.666H16.134v-1h1.972Zm0-4.07H8.119V4.3h9.988Z" transform="translate(0 0)" fill="#fd7848"/> -->
    <path id="Path_23304" data-name="Path 23304" d="M18.88,1.8H7.345a.9.9,0,0,0-.9.9V20.9a.9.9,0,0,0,.9.9H18.88a.9.9,0,0,0,.9-.9V2.7a.9.9,0,0,0-.9-.9ZM10.091,19.853H8.119V17.881h1.972Zm0-2.547H8.119V15.334h1.972Zm0-2.572H8.119V12.762h1.972Zm0-2.547H8.119v-1h1.972Zm2.672,7.666H10.791V17.881h1.972Zm0-2.547H10.791V15.334h1.972Zm0-2.572H10.791V12.762h1.972Zm0-2.547H10.791v-1h1.972Zm2.672,7.666H13.462V17.881h1.972Zm0-2.547H13.462V15.334h1.972Zm0-2.572H13.462V12.762h1.972Zm0-2.547H13.462v-1h1.972Zm2.672,7.666H16.134V15.309h1.972Zm0-7.666H16.134v-1h1.972Zm0-4.07H8.119V4.3h9.988Z" transform1="translate(-5 0)" fill="#fd7848"/>
  </g>
</svg>
