<svg xmlns="http://www.w3.org/2000/svg" xmlns:xlink="http://www.w3.org/1999/xlink" width="20" height="20" viewBox="0 0 20 20">
  <defs>
    <clipPath id="clip-path">
      <rect id="Rectangle_40617" data-name="Rectangle 40617" width="20" height="20" transform="translate(300 15)" fill="#193145"/>
    </clipPath>
  </defs>
  <g id="Mask_Group_359" data-name="Mask Group 359" transform="translate(-300 -15)" clip-path="url(#clip-path)">
    <path id="Path_63047" data-name="Path 63047" d="M19.474,5.311H2.636A.91.91,0,0,1,1.728,4.4h0A.91.91,0,0,1,2.636,3.5H19.451a.91.91,0,0,1,.908.908h0A.877.877,0,0,1,19.474,5.311Zm-1.611,5.446h0a.91.91,0,0,0-.908-.908H5.155a.91.91,0,0,0-.908.908h0a.91.91,0,0,0,.908.908h11.8A.91.91,0,0,0,17.863,10.757Zm-3.4,6.354h0a.91.91,0,0,0-.908-.908H8.559a.91.91,0,0,0-.908.908h0a.91.91,0,0,0,.908.908h4.992A.91.91,0,0,0,14.459,17.111Z" transform="translate(299.165 14.102)" fill="#193145"/>
  </g>
</svg>

<!-- <svg xmlns="http://www.w3.org/2000/svg" width="20.5" height="17.022" viewBox="0 0 20.5 17.022">
  <g id="side_menu" data-name="side menu" transform="translate(-5.56 -7.299)">
    <path id="Path_2" data-name="Path 2" d="M25.178,8.814H6.443a.632.632,0,0,1,0-1.265H25.178a.632.632,0,0,1,0,1.265Z" fill="#193145" stroke="#193145" stroke-width="0.5"/>
    <path id="Path_3" data-name="Path 3" d="M25.178,24.071H6.443a.632.632,0,1,1,0-1.265H25.178a.632.632,0,0,1,0,1.265Z" fill="#193145" stroke="#193145" stroke-width="0.5"/>
    <path id="Path_4" data-name="Path 4" d="M18.854,16.443H6.443a.632.632,0,1,1,0-1.265H18.854a.632.632,0,1,1,0,1.265Z" fill="#193145" stroke="#193145" stroke-width="0.5"/>
  </g>
</svg> -->
